obdobi	kod	cena
01/1999	0252	19
05/1999	0252	213
06/1999	0252	218
07/1999	0252	137
11/1999	0252	67
12/1999	0252	114
01/2000	0252	146
04/2000	0252	19
05/2000	0252	19
03/2004	0252	16
10/2004	0252	77
01/2005	0252	23
06/2005	0252	62
07/2005	0251	290
09/2005	0252	161
12/2005	0252	62
06/2006	0252	134
12/2006	0252	127
05/2007	0252	111
12/2007	0252	65
04/2008	0252	95
05/2008	0252	77
01/2010	0252	46