obdobi	kod	cena
06/2000	0712	11
08/2000	0712	6
09/2000	0712	22
01/2001	0712	5
02/2001	0712	9
03/2001	0712	8
05/2001	0712	106
09/2001	0712	6
10/2001	0712	72
01/2002	0712	2
02/2002	0712	1
06/2002	0712	1
07/2002	0712	1
09/2002	0712	2
10/2002	0712	46
11/2002	0712	11
12/2002	0712	2
01/2003	0712	1
07/2003	0712	5
09/2003	0712	29
10/2003	0712	37
11/2003	0712	21
12/2003	0712	1
01/2004	0712	2
03/2004	0712	3
05/2004	0712	2
07/2004	0712	1
09/2004	0712	4125
10/2004	0712	2087
12/2004	0712	4332
02/2005	0712	1
04/2005	0712	1239
05/2005	0712	1
06/2005	0712	1
02/2006	0712	3
05/2006	0712	13
06/2006	0712	1
11/2006	0712	2
02/2007	0712	1
05/2007	0712	1
08/2007	0712	3
11/2007	0712	4
04/2008	0712	3
08/2009	0712	0
10/2009	0712	1
01/2010	0712	2
06/2010	0712	0
03/2012	0712	8
05/2013	0712	1
11/2013	0712	0
10/2014	0712	1