obdobi	kod	cena
01/1999	0731	4
05/1999	0731	24
06/1999	0731	23
06/1999	0739	8
07/1999	0731	6
09/1999	0733	3
09/1999	0739	1
10/1999	0733	8
10/1999	0739	3
11/1999	0731	6
11/1999	0739	121
12/1999	0731	5
12/1999	0733	8
12/1999	0739	3
01/2000	0731	9
02/2000	0733	7
02/2000	0739	2
03/2000	0739	225
04/2000	0731	4
04/2000	0733	14
04/2000	0739	3
05/2000	0731	4
06/2000	0733	12
06/2000	0739	8
07/2000	0733	3
07/2000	0739	10
08/2000	0733	4
08/2000	0739	377
11/2000	0733	15
11/2000	0739	58
12/2000	0733	2
12/2000	0739	11
01/2001	0733	17
01/2001	0739	47
03/2001	0733	70
03/2001	0739	18
04/2001	0733	83
04/2001	0739	2
05/2001	0733	97
05/2001	0739	41
06/2001	0733	57
06/2001	0739	2
07/2001	0739	5
08/2001	0731	40
08/2001	0733	101
08/2001	0739	17
09/2001	0733	3
09/2001	0739	20
10/2001	0733	206
10/2001	0739	63
11/2001	0733	48
11/2001	0739	13
12/2001	0733	8
12/2001	0739	155
01/2002	0733	8
01/2002	0739	7
02/2002	0733	464
02/2002	0739	373
03/2002	0733	4
03/2002	0739	18
04/2002	0733	314
04/2002	0739	290
05/2002	0733	7
05/2002	0739	17
06/2002	0733	244
06/2002	0739	11
07/2002	0733	10
07/2002	0739	6
08/2002	0733	18
08/2002	0739	8
09/2002	0733	7
09/2002	0739	15
10/2002	0733	9
10/2002	0739	16
11/2002	0733	59
11/2002	0739	201
12/2002	0733	20
12/2002	0739	27
01/2003	0733	224
01/2003	0739	22
02/2003	0733	14
02/2003	0739	18
03/2003	0732	15
04/2003	0733	20
04/2003	0739	21
05/2003	0733	13
05/2003	0739	9
06/2003	0733	9
06/2003	0739	1
07/2003	0733	12
07/2003	0739	16
08/2003	0733	2
08/2003	0739	49
09/2003	0733	19
09/2003	0739	287
10/2003	0731	195
10/2003	0733	6
10/2003	0739	157
11/2003	0733	8
11/2003	0739	249
12/2003	0733	14
12/2003	0739	32
01/2004	0733	7
01/2004	0739	34
02/2004	0733	9
02/2004	0739	14
03/2004	0731	3
03/2004	0733	239
03/2004	0739	76
04/2004	0733	11
04/2004	0739	11
05/2004	0733	7
05/2004	0739	11
07/2004	0733	15
07/2004	0739	47
08/2004	0733	18
08/2004	0739	26
09/2004	0733	13
09/2004	0739	87
10/2004	0733	273
10/2004	0739	236
11/2004	0733	13
11/2004	0739	58
12/2004	0733	9
12/2004	0739	20
01/2005	0733	15
01/2005	0739	13
02/2005	0733	9
02/2005	0739	17
03/2005	0733	8
03/2005	0739	9
04/2005	0733	29
04/2005	0739	31
05/2005	0733	10
05/2005	0739	24
06/2005	0739	22
01/2006	0739	33
02/2006	0733	7
02/2006	0739	37
03/2006	0739	5
04/2006	0739	21
05/2006	0733	2
05/2006	0739	307
06/2006	0733	1
06/2006	0739	6
07/2006	0733	2
07/2006	0739	8
08/2006	0739	1124
09/2006	0739	553
10/2006	0731	8
10/2006	0739	146
11/2006	0733	10
11/2006	0739	22
12/2006	0733	2
12/2006	0739	10
01/2007	0733	2
01/2007	0739	3
02/2007	0733	10
02/2007	0739	409
03/2007	0733	7
03/2007	0739	10
04/2007	0733	6
05/2007	0733	9
05/2007	0739	7
08/2007	0733	8
08/2007	0739	1645
09/2007	0733	5
09/2007	0739	4
10/2007	0733	13
10/2007	0739	6
11/2007	0733	20
11/2007	0739	43
12/2007	0733	6
12/2007	0739	2
01/2008	0733	5
01/2008	0739	1
02/2008	0733	4
02/2008	0739	249
04/2008	0733	16
04/2008	0739	1
06/2008	0733	7
06/2008	0739	3
08/2008	0733	2
08/2008	0739	1
10/2008	0733	15
10/2008	0739	13
11/2008	0733	6
11/2008	0739	7
02/2009	0733	6
02/2009	0739	4
05/2009	0733	6
05/2009	0739	1
07/2009	0739	374
08/2009	0739	1
10/2009	0732	0
10/2009	0733	15
10/2009	0739	13
01/2010	0733	10
01/2010	0739	10
06/2010	0733	14
06/2010	0739	11
08/2010	0739	702
12/2010	0739	1
02/2011	0732	0
02/2011	0733	11
02/2011	0739	13
05/2011	0733	0
06/2011	0731	0
08/2011	0731	4
09/2011	0739	680
11/2011	0739	296
12/2011	0733	1
01/2012	0733	0
01/2012	0739	219
03/2012	0733	76
03/2012	0739	1977
04/2012	0733	6
04/2012	0739	1420
08/2012	0739	2048
09/2012	0739	1841
10/2012	0733	59
11/2012	0733	1
12/2012	0739	604
01/2013	0739	627
02/2013	0733	39
03/2013	0739	639
05/2013	0733	43
05/2013	0739	305
07/2013	0739	721
08/2013	0733	3
08/2013	0739	1483
10/2013	0733	22
10/2013	0739	6
11/2013	0733	36
11/2013	0739	617
12/2013	0739	568
01/2014	0739	823
02/2014	0733	46
02/2014	0739	709
03/2014	0733	25
03/2014	0739	737
04/2014	0733	3
05/2014	0733	125
06/2014	0739	933
07/2014	0733	64
07/2014	0739	1528
08/2014	0739	823
09/2014	0733	5724
09/2014	0739	912
10/2014	0733	11165
10/2014	0739	5
11/2014	0733	18633
11/2014	0739	1020
12/2014	0733	8607
12/2014	0739	218
01/2015	0733	3280
01/2015	0739	400