obdobi	kod	cena
01/1999	09899	55
02/1999	09899	26
03/1999	09899	50
04/1999	09899	8
05/1999	09899	17
06/1999	09899	31
07/1999	09899	737
08/1999	09899	91
09/1999	09899	12
10/1999	09899	43
11/1999	09899	2
12/1999	09894	319
12/1999	09899	17
01/2000	09899	2
02/2000	09899	0
03/2000	09894	16
03/2000	09899	419
04/2000	09899	224
05/2000	09899	1
06/2000	09899	10
07/2000	09894	331
07/2000	09899	39
08/2000	09894	9
08/2000	09899	33
09/2000	09899	3
10/2000	09899	170
11/2000	09899	117
12/2000	09899	8
01/2001	09894	549
01/2001	09899	9
02/2001	09899	59
03/2001	09894	4
03/2001	09899	8
04/2001	09899	3
05/2001	09894	29
05/2001	09899	64
06/2001	09899	8
07/2001	09899	20
08/2001	09899	2
09/2001	09894	469
09/2001	09899	108
10/2001	09899	20
11/2001	09899	25
12/2001	09899	717
01/2002	09899	4
02/2002	09899	837
03/2002	09899	7
04/2002	09894	357
04/2002	09899	215
05/2002	09899	311
06/2002	09899	25
07/2002	09899	40
08/2002	09899	530
10/2002	09899	3
11/2002	09894	308
11/2002	09899	6
12/2002	09899	582
01/2003	09899	1
02/2003	09899	885
03/2003	09899	9
04/2003	09899	15
05/2003	09899	1248
06/2003	09894	308
06/2003	09899	2
07/2003	09899	9
08/2003	09899	235
09/2003	09899	56
10/2003	09899	18
11/2003	09893	1
11/2003	09899	99
12/2003	09899	32
01/2004	09899	52
02/2004	09899	26
03/2004	09893	2
03/2004	09894	2
03/2004	09899	6201
04/2004	09893	2
04/2004	09894	10
04/2004	09899	9419
06/2004	09899	25
07/2004	09894	2
07/2004	09899	447
08/2004	09899	74
09/2004	09893	3
09/2004	09894	7
09/2004	09899	9
10/2004	09894	8
10/2004	09899	12
11/2004	09891	1
11/2004	09899	9
12/2004	09899	10
01/2005	09899	6
02/2005	09899	691
03/2005	09899	5
04/2005	09899	10
05/2005	09899	26
06/2005	09899	43
07/2005	09899	4
10/2005	09899	45
11/2005	09899	584
01/2006	09893	2
01/2006	09894	2
01/2006	09899	5
02/2006	09899	2843
04/2006	09899	30
05/2006	09893	21
05/2006	09894	4
05/2006	09899	3
06/2006	09899	126
08/2006	09899	1562
10/2006	09894	21
10/2006	09899	45
11/2006	09899	113
12/2006	09899	7
01/2007	09899	146
02/2007	09894	13
02/2007	09899	3035
04/2007	09899	157
05/2007	09899	1206
06/2007	09899	1952
07/2007	09899	1
08/2007	09899	1722
09/2007	09899	1893
10/2007	09899	513
11/2007	09899	2382
12/2007	09899	1638
01/2008	09899	1292
02/2008	09899	740
03/2008	09899	1007
04/2008	09899	1390
05/2008	09899	2860
06/2008	09899	1836
07/2008	09899	2374
08/2008	09899	2310
09/2008	09899	2804
10/2008	09894	3
10/2008	09899	3016
11/2008	09899	2184
12/2008	09899	6837
01/2009	09899	1178
02/2009	09899	855
03/2009	09899	782
04/2009	09899	1674
05/2009	09899	1042
06/2009	09899	2040
07/2009	09899	2454
08/2009	09893	0
08/2009	09899	2971
09/2009	09899	4368
10/2009	09893	1
10/2009	09899	2447
11/2009	09899	1465
12/2009	09899	1598
01/2010	09894	0
01/2010	09899	1534
02/2010	09899	2862
03/2010	09899	1143
04/2010	09899	2318
05/2010	09899	1601
06/2010	09893	2
06/2010	09894	4
06/2010	09899	3988
07/2010	09899	4564
08/2010	09899	6065
09/2010	09899	3197
10/2010	09899	2729
11/2010	09899	4181
12/2010	09899	4578
01/2011	09899	7426
02/2011	09893	0
02/2011	09894	1
02/2011	09899	2515
03/2011	09899	4743
04/2011	09899	3747
05/2011	09899	3749
06/2011	09894	20
06/2011	09899	7020
07/2011	09899	3359
08/2011	09899	5642
09/2011	09899	5314
10/2011	09899	4888
11/2011	09899	3597
12/2011	09899	2623
01/2012	09899	1339
02/2012	09899	7751
03/2012	09899	3550
04/2012	09894	1
04/2012	09899	2827
05/2012	09899	4663
06/2012	09899	6874
07/2012	09899	3951
08/2012	09894	28
08/2012	09899	5487
09/2012	09899	3018
10/2012	09899	10372
11/2012	09899	7062
12/2012	09899	4733
01/2013	09899	6633
02/2013	09893	4
02/2013	09894	52
02/2013	09899	17262
03/2013	09899	9520
04/2013	09899	5967
05/2013	09899	8597
06/2013	09899	4684
07/2013	09899	8271
08/2013	09894	5
08/2013	09899	7707
09/2013	09899	5903
10/2013	09891	29
10/2013	09899	9942
11/2013	09894	2
11/2013	09899	9716
12/2013	09899	9194
01/2014	09899	8465
02/2014	09894	3
02/2014	09899	17494
03/2014	09894	3
03/2014	09899	12647
04/2014	09899	12168
05/2014	09894	3
05/2014	09899	9170
06/2014	09891	22
06/2014	09899	7223
07/2014	09891	44
07/2014	09899	6606
08/2014	09891	44
08/2014	09899	5494
09/2014	09891	44
09/2014	09899	5727
10/2014	09891	24
10/2014	09894	2
10/2014	09899	9464
11/2014	09899	7058
12/2014	09899	2506
01/2015	09899	8863