obdobi	kod	cena
03/1999	11215	13
03/1999	11217	12
04/1999	11217	71
05/1999	11217	2
06/1999	11217	14
07/1999	11215	0
08/1999	11217	4
10/1999	11215	0
10/1999	11217	103
05/2000	11217	3
08/2000	11215	3
08/2000	11217	0
09/2000	11217	38
10/2000	11217	40
11/2000	11217	1299
01/2001	11217	2
04/2001	11217	97
07/2001	11217	37
08/2001	11217	6
11/2001	11217	61
12/2001	11217	3
05/2002	11217	34
07/2002	11213	8
07/2002	11215	2
07/2002	11217	5
10/2002	11217	140
11/2002	11215	2
11/2002	11217	34
12/2002	11217	28
04/2003	11217	111
06/2003	11217	9
07/2003	11215	2
07/2003	11217	13
09/2003	11215	2
09/2003	11217	377
01/2004	11217	99
03/2004	11217	2
04/2004	11215	2
04/2004	11217	3
05/2004	11217	38
07/2004	11217	2
08/2004	11217	3
09/2004	11217	49
10/2004	11215	1
10/2004	11217	73
02/2005	11217	10
07/2005	11217	36
03/2006	11217	19
04/2006	11215	3
04/2006	11217	24
07/2006	11217	23
11/2006	11217	19
02/2007	11217	58
05/2007	11215	8
05/2007	11217	13
06/2007	11215	11
08/2007	11215	14
08/2007	11217	63
09/2007	11215	14
10/2007	11215	4
11/2007	11215	14
11/2007	11217	6
12/2007	11215	7
01/2008	11215	12
01/2008	11217	8
02/2008	11215	8
03/2008	11215	6
04/2008	11215	19
05/2008	11215	12
05/2008	11217	27
06/2008	11215	9
06/2008	11217	20
07/2008	11215	10
07/2008	11217	15
08/2008	11215	10
09/2008	11215	9
10/2008	11215	8
10/2008	11217	44
11/2008	11215	8
11/2008	11217	108
12/2008	11215	7
01/2009	11215	7
01/2009	11217	4
02/2009	11215	6
02/2009	11217	9
03/2009	11215	5
03/2009	11217	46
04/2009	11215	6
05/2009	11215	7
06/2009	11215	8
06/2009	11217	1128
07/2009	11215	14
07/2009	11217	18
08/2009	11215	15
08/2009	11217	11
09/2009	11215	15
10/2009	11215	9
11/2009	11215	9
12/2009	11215	9
01/2010	11215	7
01/2010	11217	9
02/2010	11215	6
03/2010	11215	7
04/2010	11215	8
04/2010	11217	23
05/2010	11215	11
06/2010	11215	19
07/2010	11215	21
08/2010	11215	22
08/2010	11217	16
09/2010	11215	18
09/2010	11217	49
10/2010	11215	14
10/2010	11217	26
11/2010	11215	12
12/2010	11215	9
12/2010	11217	223
01/2011	11215	9
02/2011	11215	7
03/2011	11215	8
03/2011	11217	15
04/2011	11215	11
05/2011	11215	11
05/2011	11217	4
06/2011	11215	16
06/2011	11217	9
07/2011	11215	22
07/2011	11217	17
08/2011	11215	21
09/2011	11215	18
10/2011	11215	14
11/2011	11215	12
12/2011	11215	9
12/2011	11217	12
01/2012	11215	10
02/2012	11215	7
03/2012	11215	8
03/2012	11217	7
04/2012	11215	11
05/2012	11215	13
05/2012	11217	15
06/2012	11215	14
07/2012	11215	17
07/2012	11217	9
08/2012	11215	15
08/2012	11217	29
09/2012	11215	12
09/2012	11217	337
10/2012	11215	12
10/2012	11217	3
11/2012	11215	9
11/2012	11217	8
12/2012	11215	1
12/2012	11217	10
03/2013	11213	4055
03/2013	11217	668
04/2013	11213	2372
04/2013	11217	646
05/2013	11213	2643
05/2013	11215	0
05/2013	11217	4
06/2013	11213	1722
06/2013	11215	9
06/2013	11217	8
07/2013	11213	3629
07/2013	11215	18
07/2013	11217	89
08/2013	11213	2599
08/2013	11215	12
08/2013	11217	13
09/2013	11215	6
09/2013	11217	9
10/2013	11215	19
10/2013	11217	21
11/2013	11217	25
02/2014	11217	724
03/2014	11213	4557
05/2014	11217	31
06/2014	11213	886
06/2014	11215	7
06/2014	11217	28
07/2014	11213	1524
07/2014	11215	12
07/2014	11217	11
08/2014	11213	934
08/2014	11215	19
08/2014	11217	285
09/2014	11213	1247
09/2014	11215	13
09/2014	11217	74
10/2014	11213	2468
10/2014	11215	7
10/2014	11217	2
11/2014	11213	826
11/2014	11217	476
12/2014	11213	3841
01/2015	11213	1919