obdobi	kod	cena
09/1999	0371	30
11/1999	0371	0
08/2000	0372	1
11/2000	0371	0
03/2001	0372	6
06/2001	0371	149
07/2001	0371	123
09/2001	0371	159
11/2001	0371	293
12/2001	0371	523
03/2002	0371	2
04/2002	0371	73
08/2002	0371	80
10/2002	0371	311
12/2002	0371	56
01/2003	0371	75
03/2003	0371	27
04/2003	0371	239
07/2003	0371	32
09/2003	0371	188
09/2003	0372	102
12/2003	0371	262
12/2003	0372	568
02/2004	0371	3
03/2004	0371	46
11/2004	0372	1
03/2006	0371	5
05/2006	0371	3
10/2006	0371	8
05/2007	0371	2
06/2007	0371	4
02/2012	0371	263
03/2012	0371	173
04/2012	0371	307
05/2012	0371	109
07/2012	0371	551
09/2012	0371	384
10/2012	0371	106
11/2012	0371	319
12/2012	0371	253
01/2013	0371	157
02/2013	0371	178
03/2013	0371	88
04/2013	0371	325
06/2013	0371	397
07/2013	0371	368
10/2013	0371	263
11/2013	0371	383
12/2013	0371	875
01/2014	0371	437
02/2014	0371	298
04/2014	0371	952
05/2014	0371	4
07/2014	0371	384
10/2014	0371	152