obdobi	kod	cena
02/1999	04813	7
06/1999	04812	30
08/1999	04811	1540
12/1999	04811	2
03/2000	04811	1
04/2000	04811	374
05/2000	04811	7
08/2000	04812	14
08/2000	04813	420
04/2001	04813	150
11/2001	04811	565
12/2001	04811	250
02/2002	04811	162
04/2002	04811	256
05/2002	04811	541
07/2002	04811	593
09/2002	04811	258
10/2002	04811	499
12/2002	04811	235
01/2003	04811	274
01/2003	04813	8
02/2003	04811	327
03/2003	04811	258
04/2003	04811	283
05/2003	04811	321
06/2003	04811	232
07/2003	04811	250
08/2003	04811	349
10/2003	04811	292
10/2003	04812	574
11/2003	04811	523
12/2003	04811	260
02/2004	04811	459
03/2004	04811	288
03/2004	04812	444
04/2004	04811	553
06/2004	04811	683
07/2004	04811	290
07/2004	04812	110
08/2004	04811	1003
09/2004	04811	262
10/2004	04811	273
11/2004	04811	295
12/2004	04811	646
01/2005	04811	202
01/2005	04812	38
01/2005	04813	85
02/2005	04811	189
02/2005	04813	86
03/2005	04811	246
03/2005	04812	38
03/2005	04813	34
04/2005	04811	424
04/2005	04812	39
04/2005	04813	54
05/2005	04812	75
05/2005	04813	184
06/2005	04811	209
07/2005	04811	250
08/2005	04811	198
09/2005	04811	259
10/2005	04811	700
10/2005	04814	336
11/2005	04811	655
01/2006	04811	326
01/2006	04813	24
02/2006	04811	342
03/2006	04811	623
04/2006	04811	328
05/2006	04811	281
06/2006	04811	557
07/2006	04811	235
09/2006	04811	488
10/2006	04811	223
11/2006	04811	1141
12/2006	04811	568
02/2007	04811	189
03/2007	04811	528
04/2007	04811	201
05/2007	04811	155
06/2007	04811	200
07/2007	04811	1221
08/2007	04811	1200
09/2007	04811	1383
10/2007	04811	1211
11/2007	04811	1247
12/2007	04811	797
01/2008	04811	1356
02/2008	04811	2346
03/2008	04811	2124
04/2008	04811	4302
05/2008	04811	509
06/2008	04811	2121
07/2008	04811	2148
08/2008	04811	77
09/2008	04811	2109
10/2008	04811	1730
11/2008	04811	1431
12/2008	04811	1669
01/2009	04811	568
03/2009	04811	1648
03/2009	04812	5
04/2009	04811	1070
05/2009	04811	1278
06/2009	04811	646
07/2009	04811	1315
08/2009	04811	2467
09/2009	04811	290
10/2009	04811	1305
11/2009	04811	2640
12/2009	04811	1397
02/2010	04811	1094
03/2010	04811	1364
04/2010	04811	207
05/2010	04811	1351
06/2010	04811	1357
08/2010	04811	1068
09/2010	04811	1429
10/2010	04811	230
11/2010	04811	1735
12/2010	04811	1307
02/2011	04811	1257
03/2011	04811	221
04/2011	04811	1247
05/2011	04811	1790
06/2011	04811	1726
07/2011	04811	939
08/2011	04811	2100
09/2011	04811	446
10/2011	04811	1785
11/2011	04811	1516
12/2011	04811	1621
01/2012	04811	1674
02/2012	04811	438
02/2012	04812	40
03/2012	04811	1740
04/2012	04811	1779
04/2012	04812	19
05/2012	04811	1654
05/2012	04812	39
06/2012	04811	1860
06/2012	04812	99
07/2012	04811	1748
08/2012	04811	3948
09/2012	04811	1529
10/2012	04811	2254
10/2012	04812	39
11/2012	04811	2279
11/2012	04812	58
12/2012	04811	2302
01/2013	04811	1929
02/2013	04811	1210
02/2013	04812	84
03/2013	04811	1587
04/2013	04811	1555
05/2013	04811	2651
05/2013	04812	85
06/2013	04811	1465
06/2013	04812	43
07/2013	04811	1339
07/2013	04812	64
08/2013	04811	2570
09/2013	04811	1571
10/2013	04811	2416
10/2013	04812	41
11/2013	04811	2556
11/2013	04812	82
12/2013	04811	4336
01/2014	04811	390
01/2014	04812	133
02/2014	04811	3387
03/2014	04811	4825
04/2014	04811	2592
05/2014	04811	4171
05/2014	04812	88
06/2014	04811	3272
07/2014	04811	2460
07/2014	04812	44
08/2014	04811	2712
09/2014	04811	3441
09/2014	04812	89
10/2014	04811	3554
10/2014	04812	6
11/2014	04811	2219
11/2014	04812	23
12/2014	04811	3848
12/2014	04812	44
01/2015	04811	2114
01/2015	04812	66