obdobi	kod	cena
02/1999	0581	535
06/1999	0581	4
07/1999	0581	31
05/2000	0581	47
07/2000	0581	7
12/2000	0581	7
03/2001	0581	31
05/2001	0581	12
11/2001	0581	40
12/2001	0581	53
02/2002	0581	98
03/2002	0581	31
04/2002	0581	72
05/2002	0581	82
08/2002	0581	26
09/2002	0581	18
10/2002	0581	61
12/2002	0581	54
01/2003	0581	40
03/2003	0581	101
04/2003	0581	45
05/2003	0581	14
06/2003	0581	72
07/2003	0581	42
10/2003	0581	32
11/2003	0581	50
12/2003	0581	105
01/2004	0581	84
02/2004	0581	104
03/2004	0581	231
04/2004	0581	203
06/2004	0581	98
08/2004	0581	256
09/2004	0581	363
10/2004	0581	101
11/2004	0581	153
12/2004	0581	396
01/2005	0581	293
02/2005	0581	135
03/2005	0581	119
04/2005	0581	139
05/2005	0581	82
06/2005	0581	177
07/2005	0581	198
08/2005	0581	82
09/2005	0581	42
10/2005	0581	131
11/2005	0581	266
12/2005	0581	75
01/2006	0581	298
02/2006	0581	20
03/2006	0581	157
04/2006	0581	272
05/2006	0581	299
06/2006	0581	246
07/2006	0581	145
08/2006	0581	99
09/2006	0581	89
10/2006	0581	281
11/2006	0581	105
12/2006	0581	462
01/2007	0581	158
02/2007	0581	112
03/2007	0581	231
04/2007	0581	277
05/2007	0581	607
06/2007	0581	460
07/2007	0581	363
08/2007	0581	757
09/2007	0581	28
10/2007	0581	176
11/2007	0581	565
12/2007	0581	288
01/2008	0581	505
02/2008	0581	23
03/2008	0581	260
04/2008	0581	500
05/2008	0581	551
06/2008	0581	138
07/2008	0581	134
08/2008	0581	9
09/2008	0581	456
11/2008	0581	79
12/2008	0581	86
01/2009	0581	194
02/2009	0581	1065
03/2009	0581	531
04/2009	0581	87
05/2009	0581	171
06/2009	0581	227
08/2009	0581	83
10/2009	0581	81
11/2009	0581	86
01/2010	0581	60
02/2010	0581	85
08/2010	0581	149
09/2010	0581	80
10/2010	0581	22
11/2010	0581	42
03/2011	0581	76
04/2011	0581	76
06/2011	0581	32
10/2011	0581	156
11/2011	0581	12
12/2011	0581	6
02/2012	0581	4
03/2012	0581	121
04/2012	0581	8
06/2012	0581	786
07/2012	0581	105
09/2012	0581	0
10/2012	0581	2
11/2012	0581	212
03/2013	0581	69
05/2013	0581	369
06/2013	0581	43
10/2013	0581	105
11/2013	0581	36
12/2013	0581	169
02/2014	0581	16
03/2014	0581	13
04/2014	0581	60
06/2014	0581	33
07/2014	0581	69
09/2014	0581	84