obdobi	kod	cena
01/1999	0733	554
03/1999	0733	1122
05/1999	0733	2
06/1999	0733	573
09/1999	0733	1310
10/1999	0733	1389
11/1999	0733	1435
12/1999	0733	959
11/2000	0733	15
03/2002	0733	4
11/2003	0733	28
10/2004	0733	5
11/2004	0733	969
10/2007	0733	527
01/2008	0733	3
06/2008	0733	99
08/2008	0733	466
07/2010	0733	109
08/2010	0733	64
10/2010	0733	138
11/2010	0733	1
12/2010	0733	167
01/2011	0733	228
02/2011	0733	122
03/2011	0733	937
04/2011	0733	143
05/2011	0733	99
06/2011	0733	67
07/2011	0733	52
08/2011	0733	42
09/2011	0733	477
10/2011	0733	103
11/2011	0733	648
01/2012	0733	172
02/2012	0733	14
03/2012	0733	491
04/2012	0733	66
05/2012	0733	132
06/2012	0733	302
07/2012	0733	172
08/2012	0733	111
09/2012	0733	70
10/2012	0733	1491
11/2012	0733	603
12/2012	0733	92
01/2013	0733	11
02/2013	0733	84
03/2013	0733	132
04/2013	0733	365
06/2013	0733	31
07/2013	0733	111
08/2013	0733	124
09/2013	0733	533
10/2013	0733	435
11/2013	0733	897
12/2013	0733	1185
01/2014	0733	37
02/2014	0733	172
03/2014	0733	113
05/2014	0733	5
09/2014	0733	12
10/2014	0733	56